 {
   "name": "Traffic Share",
   "icon": "https://cdn.pixabay.com/photo/2013/07/12/15/02/mitsubishi-149283_640.png",
   "version": "1.0.0",
   "slug": "your-app-slug",
   "sdkVersion": "17.0.0",
   "ios": {
     "bundleIdentifier": "com.espanyoh.tfshare"
   },
   "android": {
     "package": "com.espanyoh.tfshare"
   }
 }